CONTAINER dlrendersettings
{
	NAME dlrendersettings;
	INCLUDE VPbase;
	INCLUDE GVbase;

	LONG DL_RENDER_LAYER
	{
		ANIM OFF;
		CYCLE
		{
			DL_MASTER_LAYER;
			DL_LAYER_1;
			DL_LAYER_2;
		}
	}

	LONG DL_ACTIVE_RENDER_SETTINGS
	{
		ANIM OFF;
		CYCLE
		{
			DL_RENDER_SETTINGS_1;
			DL_RENDER_SETTINGS_2;
		}

	}

	GROUP RENDER
	{
		COLUMNS 5;
		STATICTEXT EMPTY1{SCALE_H; ANIM OFF;}
		STATICTEXT EMPTY2{SCALE_H; ANIM OFF;}
	}
		
	GROUP
	{
		//GROUP
		//{
		//	COLUMNS 5;
		//	BUTTON DL_START_IPR{ANIM OFF;SCALE_H;}
		//	BUTTON DL_ABORT_IPR{ANIM OFF;SCALE_H;HIDDEN;}
		//	STATICTEXT EMPTY3{SCALE_H; ANIM OFF;}
		//	BUTTON DL_RENDER_BUTTON{ANIM OFF;SCALE_H;}
		//	BUTTON DL_ABORT_RENDER_BUTTON{ANIM OFF;SCALE_H;HIDDEN;}
		//	STATICTEXT EMPTY4{SCALE_H; ANIM OFF;}
		//	BUTTON DL_RENDER_SEQ{ANIM OFF;SCALE_H;}
		//	BUTTON DL_ABORT_RENDER_SEQ{ANIM OFF;SCALE_H;HIDDEN;}
		//}
		//STATICTEXT{}
		
		GROUP DL_GROUP_QUALITY
		{
			
			STATICTEXT DL_ISCLICKED { ANIM OFF; HIDDEN; }
			FILENAME DL_FOLDER_OUTPUT{ANIM OFF; HIDDEN;}
			
			LONG DL_SHADING_SAMPLES
			{
				ANIM OFF;
				MIN 0;
				MINSLIDER 0;
				MAXSLIDER 100;
				CUSTOMGUI LONGSLIDER;
			}

			LONG DL_PIXEL_SAMPLES
			{
				ANIM OFF;
				MIN 0;
				MAX 256;
				MINSLIDER 0;
				CUSTOMGUI LONGSLIDER;

			}

			LONG DL_VOLUME_SAMPLES
			{	ANIM OFF;
				MIN 0;
				MINSLIDER 0;
				MAXSLIDER 256;
				CUSTOMGUI LONGSLIDER;
			}

			STATICTEXT { }


			LONG DL_PIXEL_FILTER
			{
				ANIM OFF;
				CYCLE
				{
					DL_BLACKMAN_HARRIS;
					DL_MITCHELL;
					DL_CATMULL_ROM;
					DL_SINC;
					DL_BOX;
					DL_TRIANGLE;
					DL_GAUSSIAN;

				}
			}

			REAL DL_FILTER_WIDTH
			{
				ANIM OFF;
				MIN 0;
				MINSLIDER 0;
				MAXSLIDER 10;
				STEP 0.1;
				CUSTOMGUI REALSLIDER;
			}


			STATICTEXT { }


			BOOL DL_MOTION_BLUR
			{
				ANIM OFF;
			}
		
			STATICTEXT { }

			LONG DL_MAX_DIFFUSE_DEPTH
			{
				ANIM OFF;
			}

			LONG DL_MAX_REFLECTION_DEPTH
			{
				ANIM OFF;
			}

			LONG DL_MAX_REFRACTION_DEPTH
			{
				ANIM OFF;
			}

			LONG DL_MAX_HAIR_DEPTH
			{
				ANIM OFF;
			}

			REAL DL_MAX_DISTANCE
			{
				ANIM OFF;
			}


		}

		GROUP DL_GROUP_OUTPUT
		{
			BOOL DISPLAY_RENDERED_IMAGES {ANIM OFF;}
			BOOL SAVE_RENDERED_IMAGES {ANIM OFF;}
			BOOL SAVE_AND_DISPLAY {ANIM OFF;}
			BOOL OUTPUT_NSI_FILES {ANIM OFF;}
			SEPARATOR {LINE; }
			
			GROUP
			{
				FILENAME DL_DEFAULT_IMAGE_FILENAME
				{
				  ANIM OFF;
				  SAVE;	
				}
			}
			
			GROUP
			{
				COLUMNS 2;
				LONG DL_DEFAULT_IMAGE_FORMAT
				{
					ANIM OFF;
					CYCLE
					{
						DL_FORMAT_TIFF;
						DL_FORMAT_OPEN_EXR;
						DL_FORMAT_OPEN_EXR_DEEP;
						DL_FORMAT_OPEN_EXR_DWAA;
						DL_FORMAT_PNG;
					}
				}
					
				LONG DL_DEFAULT_IMAGE_BITDEPTH
				{
					ANIM OFF;
					HIDDEN;	
					CYCLE
					{
						DL_EIGHT_BIT;
						DL_SIXTEEN_BIT;
						DL_SIXTEEN_BIT_FLOAT;
						DL_THIRTYTWO_BIT;
					}
				}
				
				LONG DL_DEFAULT_IMAGE_OUTPUT
				{
					ANIM OFF;
					CYCLE
					{
						DL_SIXTEEN_BIT_FLOAT;
						DL_THIRTYTWO_BIT;
					}
				}
				
				
				LONG DL_DEFAULT_IMAGE_OUTPUT_TIFF
				{
					ANIM OFF;
					HIDDEN;
					CYCLE
					{
						DL_EIGHT_BIT;
						DL_SIXTEEN_BIT;
						DL_THIRTYTWO_BIT;
					}
				}
			
				LONG DL_DEFAULT_IMAGE_OUTPUT_JPG
				{
					ANIM OFF;
					HIDDEN;
					CYCLE
					{
						DL_EIGHT_BIT;
					}
				}
				
				LONG DL_DEFAULT_IMAGE_OUTPUT_PNG
				{
					ANIM OFF;
					HIDDEN;
					CYCLE
					{
						DL_EIGHT_BIT;
						DL_SIXTEEN_BIT;
					}
				}
			}
			
			BOOL SAVE_ADDITIONAL_JPEG{ANIM OFF;}
			
			SEPARATOR {LINE; }
			GROUP{FILENAME OUTPUT_NSI_FILES_PATH{ANIM OFF;SAVE;}}
			STATICTEXT FILE1COMMENT{}
			STATICTEXT FILE2COMMENT{}
			STATICTEXT FILE3COMMENT{}
		}
		

		//GROUP DL_SCENE_ELEMENTS
		//{

		//	LONG DL_CAMERA_VIEW
		//	{
		//		ANIM OFF;
		//		CYCLE
		//		{
		//			DL_CAMERA_NONE;
		//			DL_CAMERA_FRONTSHAPE;
		//			DL_CAMERA_PERPSHAPE;
		//			DL_CAMERA_SIDESHAPE;
		//			DL_CAMERA_TOPSIDE;
		//		}
		//	}

		//	LONG DL_ENVIRONMENT_VIEW
		//	{
		//		ANIM OFF;
		//		CYCLE
		//		{
		//			DL_ENVIRONMENT_NONE;
		//			DL_ENVIRONMENT_SHAPE1;
		//			DL_ENVIRONMENT_SHAPE2;
		//			DL_ENVIRONMENT_SHAPE3;

		//		}
		//	}

		//	LONG DL_ATMOSPHERE_VIEW
		//	{
		//		ANIM OFF;
		//		CYCLE
		//		{
		//			DL_ATMOSPHERE_NONE;
		//			DL_ATMOSPHERE_SHAPE1;
		//		}
		//	}

		//	LONG DL_OBJECTS_TO_RENDER_VIEW
		//	{
		//		ANIM OFF;
		//		CYCLE
		//		{
		//			DL_OBJECTS_TO_RENDER_ALL;
		//		}
		//	}

		//	LONG DL_LIGHTS_TO_RENDER_VIEW
		//	{
		//		ANIM OFF;
		//		CYCLE
		//		{
		//			DL_LIGHTS_TO_RENDER_ALL;
		//		}
		//	}

		//}

		GROUP DL_GROUP_IMAGE_LAYERS
		{
			SCALE_H;FIT_H;
			GROUP
			{
				SCALE_H;FIT_H;
				SEPARATOR {LINE; }

				DYNAMIC GV_ABS_INPUT
				{
					INPORT;
					CREATEPORT 6;
					MINPORTS 5;
					MAXPORTS 10;
				}
				DYNAMIC GV_ABS_OUTPUT
				{
					OUTPORT;
					CREATEPORT;
				}
			}
			
			GROUP
			{
				
				DELIGHTLAYERCUSTOMTYPE DL_CUSTOM_AOV_LAYER
				{
				ANIM OFF;
				CUSTOMGUI DELIGHTLAYERCUSTOMGUI;
				}
			}
			
			GROUP DL_MULTILIGHT_GROUP
			{
				GROUP
				{
					LONG DL_RENDER_MULTILIGHT
					{
						ANIM OFF;
						CYCLE
						{
							DL_RENDER_MULTILIGHT_OFF;
							DL_RENDER_MULTILIGHT_ALL;
							DL_RENDER_MULTILIGHT_SELECTION;
						}
					}
				}
				GROUP
				{
					DELIGHTMULTILIGHTCUSTOMTYPE DL_CUSTOM_MULTI_LIGHT
					{
						ANIM OFF;
						CUSTOMGUI DELIGHTMULTILIGHTCUSTOMGUI;
					}
				}
			}
		}

		GROUP DL_GROUP_OVERRIDES
		{
			GROUP
			{
				COLUMNS 1;
				BOOL DL_ENABLE_INTERACTIVE_PREVIEW
				{
					ANIM OFF;
				}
			}
			
			SEPARATOR {}
			SEPARATOR {}

			GROUP
			{
				COLUMNS 2;
				STATICTEXT{}
				BOOL DL_DISABLE_MOTION_BLUR
				{
					ANIM OFF;
				}
				
				STATICTEXT{}				
				BOOL DL_DISABLE_DEPTH_OF_FIELD
				{
					ANIM OFF;
				}
				
				STATICTEXT{}				
				BOOL DL_DISABLE_IMAGE_LAYER
				{
					ANIM OFF;
				}

				STATICTEXT{}								
				BOOL DL_DISABLE_DISPLACEMENT
				{
					ANIM OFF;
				}				

				STATICTEXT{}				
				BOOL DL_DISABLE_SUBSURFACE
				{
					ANIM OFF;
				}
				
				STATICTEXT{}				
				BOOL DL_DISABLE_ATMOSPHERE
				{
					ANIM OFF;
				}
				
				STATICTEXT{}				
				BOOL DL_DISABLE_MULTIPLE_SCATTER
				{
					ANIM OFF;
				}
				
				STATICTEXT{}				
				LONG DL_RESOLUTION
				{
					ANIM OFF;
					CYCLE
					{
						DL_FULL;
						DL_HALF;
						DL_QUARTER;
						DL_EIGHTH;
					}
				}

				STATICTEXT{}
				LONG DL_SAMPLING
				{
					ANIM OFF;
					CYCLE
					{
						DL_HUNDRED_PERCENT;
						DL_TWENTYFIVE_PERCENT;
						DL_TEN_PERCENT;
						DL_FOUR_PERCENT;
						DL_ONE_PERCENT;
					}

				}
			}
		}
	}
}