CONTAINER Tcamera
{
	NAME Tcamera;
	INCLUDE Tbase;
	
	GROUP ID_TAGPROPERTIES
	{
		GROUP
		{
			COLUMNS 5;
			STATICTEXT{SCALE_H;}
			STATICTEXT{}
			SEPARATOR SHUTTER_GROUP{}
			STATICTEXT{}
			STATICTEXT{}
		}
		REAL SHUTTER_ANGLE		{SCALE_H;UNIT DEGREE; MIN 0.0; MINSLIDER 0.0; MAXSLIDER 360.0; CUSTOMGUI REALSLIDER;}
		REAL SHUTTER_OPENING_EFFICIENCY	{SCALE_H;UNIT PERCENT; MIN 0.0; MAX 100.0; CUSTOMGUI REALSLIDER;}	
		REAL SHUTTER_CLOSING_EFFICIENCY	{UNIT PERCENT; MIN 0.0; MAX 100.0; CUSTOMGUI REALSLIDER;}

		STATICTEXT{}
		GROUP
		{
			COLUMNS 5;
			STATICTEXT{SCALE_H;}
			STATICTEXT{}
			SEPARATOR LENS_GROUP{}
			STATICTEXT{}
			STATICTEXT{}
		}		
				
		BOOL FINITE_BLADES{}
		LONG NUMBER_OF_BLADES{MIN 3;}
		REAL ROTATION{UNIT DEGREE; MIN 0; MAX 360; CUSTOMGUI REALSLIDER;}
		
		STATICTEXT{}
		GROUP
		{
			COLUMNS 5;
			STATICTEXT{SCALE_H;}
			STATICTEXT{}
			SEPARATOR DEPTH_OF_FIELD_GROUP{}
			STATICTEXT{}
			STATICTEXT{}
		}
		
		BOOL USE_DEPTH_OF_FIELD{}
		REAL F_STOP{MIN 0.0; MAXSLIDER 20.0; CUSTOMGUI REALSLIDER;}
		REAL FOCAL_LENGTH{MIN 0.0; MAXSLIDER 20.0; CUSTOMGUI REALSLIDER;}
		
		STATICTEXT{}
		GROUP
		{
			COLUMNS 5;
			STATICTEXT{SCALE_H;}
			STATICTEXT{}
			SEPARATOR PROJECTION_GROUP{}
			STATICTEXT{}
			STATICTEXT{}
		}		
		
		LONG PROJECTION_TYPE
		{
			CYCLE
			{
				DL_PERSPECTIVE;
				DL_ORTHOGRAPHIC;
				DL_CYLINDRICAL;
				DL_FISHEYE_STEREOGRAPHIC;
				DL_FISHEYE_EQUIDISTANT;
				DL_FISHEYE_EQUISOLID	;
				DL_FISHEYE_ORTHOGRAPHIC;
				DL_SPHERICAL;
			}
		}
		REAL DL_ORTHOGRAPHIC_WIDTH{MIN 0; MINSLIDER 0; MAXSLIDER 10; STEP 0.1; CUSTOMGUI REALSLIDER;}
		REAL AUXILIARY_FOV{MIN 0; MAX 360; MINSLIDER 0; MAXSLIDER 360; STEP 1; CUSTOMGUI REALSLIDER;}
	}
}
