CONTAINER dlgobofilter
{
	NAME dlgobofilter;
	INCLUDE Obase;

	GROUP GOBO_FILTER
	{
		SEPARATOR {LINE;}
		GROUP
		{		
			
			FILENAME GOBO_MAP{SCALE_H;}
			STATICTEXT{}
			REAL GOBO_DENSITY {MIN 0; MINSLIDER 0; MAXSLIDER 20; CUSTOMGUI REALSLIDER;}
			BOOL GOBO_INVERT {}
			
			COLUMNS 2;
			REAL GOBO_SCALE_START {MIN 0;}
			REAL GOBO_SCALE_END {MIN 0;}
			
			REAL GOBO_OFFSET_START {MIN 0;}
			REAL GOBO_OFFSET_END {MIN 0;}
		}
		SEPARATOR{}
		
		GROUP
		{
			LONG S_WRAP_MODE
			{
				SCALE_H;
				CYCLE
				{
					S_WRAP_CLAMP;
					S_WRAP_BLACK;
					S_WRAP_MIRROR;
					S_WRAP_PERIODIC;
				}
			}
			
			LONG T_WRAP_MODE
			{
				SCALE_H;
				CYCLE
				{
					T_WRAP_CLAMP;
					T_WRAP_BLACK;
					T_WRAP_MIRROR;
					T_WRAP_PERIODIC;
				}
			}			
		}		
		STATICTEXT{}
		BOOL GOBO_USE_FILTER{}
		BOOL IS_SELECTED{HIDDEN;}
	}
}
