DIALOG aovs_dialog
{
    FIT_H; FIT_V; SCALE_V; SCALE_H;

	GROUP
	{		
		COLUMNS 1;
		FIT_H; SCALE_H;
		BORDERSIZE 10,0,10,0;
		
		GROUP
		{
			COLUMNS 2;
			BUTTON DL_ADD_COLOR {NAME DL_COLOR;};
			//BUTTON DL_ADD_FLOAT {NAME DL_FLOAT;};
		}
	}
}