DIALOG light_filters_dialog
{
	NAME TDLG;
	SCALE_H;SCALE_V;
  
	GROUP
	{
		COLUMNS 1; 

		SCALE_H;SCALE_V;	
		LISTVIEW DL_LIGHT_FILTERS_LISTVIEW { SCALE_H;SCALE_V; SIZE 150,100; };
	}	
	GROUP
	{
		CENTER_H; CENTER_V;

		GROUP
		{
			BUTTON BUTTON_OK {SIZE -70,-20; NAME OKBUTTON; }
		}
	}
}
